Getting Started with R - 2 Packages
…
A data.frame in the tidyverse is called tibble. A tibble is sometimes more flexible and convenient for manipulating and printing data. Let’s transform the iris data frame into a tibble.

iris.tbl = as_tibble(iris) 
iris.tbl # iris.tbl is a tibble

# A tibble: 150 × 5
   Sepal.Length Sepal.Width Petal.Length Petal.Width Species
          <dbl>       <dbl>        <dbl>       <dbl> <fct>  
 1          5.1         3.5          1.4         0.2 setosa 
 2          4.9         3            1.4         0.2 setosa 
 3          4.7         3.2          1.3         0.2 setosa 
 4          4.6         3.1          1.5         0.2 setosa 
 5          5           3.6          1.4         0.2 setosa 
 6          5.4         3.9          1.7         0.4 setosa 
 7          4.6         3.4          1.4         0.3 setosa 
 8          5           3.4          1.5         0.2 setosa 
 9          4.4         2.9          1.4         0.2 setosa 
10          4.9         3.1          1.5         0.1 setosa 
# ℹ 140 more rows
As an extension, a tsibble object is a tibble with an additional time series structure. It contains a specific index variable corresponding to the observation’s time index. Let us convert the covidcases data into a tsibble. To visualize a tsibble we also need the fable package.

library(tsibble)
library(fable)

In a tsibble object, we can define so-called key variables, which define the subjects or individuals measured over time. Key variables also allow easy processing of panel data in R.

In the covidcases example, the key variables are the federal states, and the time series is the incidence numbers. Since a simultaneous display of the curves of all federal states would produce a very cluttered plot, we select only the total Germany, Nordrhein-Westfalen, and Berlin. The different steps can be represented in tidyverse as a sequence of multiple operations using the pipe operator |> (other pipes like %>%do a similar job).

covid.tsibble = as_tsibble(covidcases, index=date) |>
  pivot_longer(-date, names_to = "state", values_to = "incidence") |>
  filter(state %in% c("GER", "NW", "BE"))
covid.tsibble

# A tsibble: 1,563 x 3 [1D]
# Key:       state [3]
   date       state incidence
   <date>     <chr>     <dbl>
 1 2021-09-11 BE         83.5
 2 2021-09-11 NW        103. 
 3 2021-09-11 GER        82.7
 4 2021-09-12 BE         84.3
 5 2021-09-12 NW        101. 
 6 2021-09-12 GER        80.1
 7 2021-09-13 BE         83.7
 8 2021-09-13 NW         99.3
 9 2021-09-13 GER        81.8
10 2021-09-14 BE         84.9
# ℹ 1,553 more rows
…
